…
  - `parse_css`: parse a CSS file into a data frame

## Usage

``` r
library(tsuka)

# current version
packageVersion("tsuka")
## [1] '0.1.0'
```

``` r
parse_css(system.file("extdat/sample.css", package = "tsuka"))
## # A tibble: 230 x 3
##    selectors property        value   
##    <chr>     <chr>           <chr>   
##  1 .fc       direction       ltr     
##  2 .fc       text-align      left    
##  3 .fc table border-collapse collapse
##  4 .fc table border-spacing  0       
##  5 html .fc  font-size       1em     
##  6 .fc table font-size       1em     
##  7 .fc td    padding         0       
##  8 .fc td    vertical-align  top     
##  9 .fc th    padding         0       
## 10 .fc th    vertical-align  top     
## # … with 220 more rows
```
…
